{
    "str_P": [
        [
            "0108",
            "0126",
            "0132",
            "0159",
            "0162",
            "0165"
        ],
        [
            "0168"
        ],
        [
            "0171",
            "0174",
            "0177",
            "0183"
        ]
    ],
    "list_Fs": [
        [
            0.06819345727818382,
            0.06225977437667129,
            0.08521589983667449,
            0.07229853696988964,
            0.06684608303090335,
            0.0594698426772963
        ],
        [
            0.07410503666145293
        ],
        [
            0.07222533625741047,
            0.0628661966192616,
            0.1222910051530018,
            0.10012834557481252
        ]
    ],
    "list_As": [
        [
            2.6859066637678124,
            2.7241978111259413,
            2.550026200288231,
            2.6367583664402656,
            2.6639562945344033,
            2.715873758781455
        ],
        [
            2.6532589278831202
        ],
        [
            2.661675213064442,
            2.7211004781901336,
            2.2551752115117925,
            2.4215843514718958
        ]
    ],
    "list_Ps": [
        [
            [
                1421.8443744665283,
                552.0575205900525,
                0.0
            ],
            [
                1420.4147446429997,
                549.8598940632068,
                0.0
            ],
            [
                1418.6369234667561,
                550.381102523537,
                0.0
            ],
            [
                1416.6377301530415,
                553.8103977829591,
                0.0
            ],
            [
                1415.3394089380736,
                550.4504672217248,
                0.0
            ],
            [
                1415.0646866328145,
                553.627784777949,
                0.0
            ]
        ],
        [
            [
                1413.9289904165453,
                547.4515343818214,
                0.0
            ]
        ],
        [
            [
                1424.3573137259339,
                544.7544524432822,
                0.0
            ],
            [
                1422.0401440672058,
                550.4570460290789,
                0.0
            ],
            [
                1423.9999802399848,
                553.7304369146761,
                0.0
            ],
            [
                1424.0722033722698,
                547.2687025993057,
                0.0
            ]
        ]
    ],
    "uniq": [
        18,
        19,
        20
    ],
    "list_ds_former": [
        [
            74.8870704441051,
            78.43272072259498,
            80.26257799990798,
            75.886910583841,
            81.01202794447836,
            80.21944588109947
        ],
        [
            72.85356054001842
        ],
        [
            92.97657515398043,
            83.7445189821802,
            84.73548439752012,
            86.90576591906765
        ]
    ],
    "list_ds_latter": [
        [
            89.89890897268744,
            88.61277906808995,
            86.19284085921652,
            89.45884433429063,
            87.03359482593025,
            85.0269511169203
        ],
        [
            84.58442047376418
        ],
        [
            70.80889800140375,
            81.13042561705063,
            70.41048486555772,
            78.1919015309939
        ]
    ]
}